%YAML 1.1
%TAG !u! tag:unity3d.com,2011:
--- !u!114 &11400000
MonoBehaviour:
  m_ObjectHideFlags: 0
  m_CorrespondingSourceObject: {fileID: 0}
  m_PrefabInstance: {fileID: 0}
  m_PrefabAsset: {fileID: 0}
  m_GameObject: {fileID: 0}
  m_Enabled: 1
  m_EditorHideFlags: 0
  m_Script: {fileID: 11500000, guid: 08d2c2d7830608c47b7968c3e9e9a239, type: 3}
  m_Name: Beards
  m_EditorClassIdentifier: 
  Hairstyles:
  - Mesh: {fileID: 0}
    Name: None
    ShadowMap: {fileID: 2800000, guid: 1270350247c551c459dd9a3499de08a6, type: 3}
    AddCopyPoseScript: 0
    Icon: {fileID: 0}
  - Mesh: {fileID: 6199069993515932958, guid: ab6ed116b1e3db34bad90bf5dfc13898, type: 3}
    Name: Beard_01
    ShadowMap: {fileID: 2800000, guid: bb043ee95cd2f97439fd556f0bc8ac73, type: 3}
    AddCopyPoseScript: 0
    Icon: {fileID: 0}
  - Mesh: {fileID: 4430033060944462147, guid: ad1b6c5d24d6a7343af4bfb28b33e968, type: 3}
    Name: Beard_02
    ShadowMap: {fileID: 2800000, guid: 603ec75ed6711954fbcd8482255aee1e, type: 3}
    AddCopyPoseScript: 0
    Icon: {fileID: 0}
  - Mesh: {fileID: 7211437688052126827, guid: b909589048b11584d934c3fcb4d7d312, type: 3}
    Name: Beard_03
    ShadowMap: {fileID: 2800000, guid: c8b569d16d03c8f41847fa4c76f819aa, type: 3}
    AddCopyPoseScript: 0
    Icon: {fileID: 0}
  - Mesh: {fileID: 9055932141041278174, guid: bedbf1bf51eeee6408fb8779e7ef946e, type: 3}
    Name: Beard_04
    ShadowMap: {fileID: 2800000, guid: 309db5ea805ef074b9e881966c66b654, type: 3}
    AddCopyPoseScript: 0
    Icon: {fileID: 0}
  ShadowMapProperty: _Beard_Shadow_Map
  TintProperty: _Hair_Tint
