%YAML 1.1
%TAG !u! tag:unity3d.com,2011:
--- !u!1001 &967816541715929326
PrefabInstance:
  m_ObjectHideFlags: 0
  serializedVersion: 2
  m_Modification:
    m_TransformParent: {fileID: 0}
    m_Modifications:
    - target: {fileID: -8679921383154817045, guid: 23b39f9dd0d2980409c4d68960262337,
        type: 3}
      propertyPath: m_RootOrder
      value: 0
      objectReference: {fileID: 0}
    - target: {fileID: -8679921383154817045, guid: 23b39f9dd0d2980409c4d68960262337,
        type: 3}
      propertyPath: m_LocalPosition.x
      value: 0
      objectReference: {fileID: 0}
    - target: {fileID: -8679921383154817045, guid: 23b39f9dd0d2980409c4d68960262337,
        type: 3}
      propertyPath: m_LocalPosition.y
      value: 0
      objectReference: {fileID: 0}
    - target: {fileID: -8679921383154817045, guid: 23b39f9dd0d2980409c4d68960262337,
        type: 3}
      propertyPath: m_LocalPosition.z
      value: 0
      objectReference: {fileID: 0}
    - target: {fileID: -8679921383154817045, guid: 23b39f9dd0d2980409c4d68960262337,
        type: 3}
      propertyPath: m_LocalRotation.w
      value: 1
      objectReference: {fileID: 0}
    - target: {fileID: -8679921383154817045, guid: 23b39f9dd0d2980409c4d68960262337,
        type: 3}
      propertyPath: m_LocalRotation.x
      value: 0
      objectReference: {fileID: 0}
    - target: {fileID: -8679921383154817045, guid: 23b39f9dd0d2980409c4d68960262337,
        type: 3}
      propertyPath: m_LocalRotation.y
      value: 0
      objectReference: {fileID: 0}
    - target: {fileID: -8679921383154817045, guid: 23b39f9dd0d2980409c4d68960262337,
        type: 3}
      propertyPath: m_LocalRotation.z
      value: 0
      objectReference: {fileID: 0}
    - target: {fileID: -8679921383154817045, guid: 23b39f9dd0d2980409c4d68960262337,
        type: 3}
      propertyPath: m_LocalEulerAnglesHint.x
      value: 0
      objectReference: {fileID: 0}
    - target: {fileID: -8679921383154817045, guid: 23b39f9dd0d2980409c4d68960262337,
        type: 3}
      propertyPath: m_LocalEulerAnglesHint.y
      value: 0
      objectReference: {fileID: 0}
    - target: {fileID: -8679921383154817045, guid: 23b39f9dd0d2980409c4d68960262337,
        type: 3}
      propertyPath: m_LocalEulerAnglesHint.z
      value: 0
      objectReference: {fileID: 0}
    - target: {fileID: -8187000438852778141, guid: 23b39f9dd0d2980409c4d68960262337,
        type: 3}
      propertyPath: m_CastShadows
      value: 0
      objectReference: {fileID: 0}
    - target: {fileID: -8187000438852778141, guid: 23b39f9dd0d2980409c4d68960262337,
        type: 3}
      propertyPath: m_Materials.Array.data[0]
      value: 
      objectReference: {fileID: 2100000, guid: 611c67d6c59b84d45b58a856f2969ddb, type: 2}
    - target: {fileID: 919132149155446097, guid: 23b39f9dd0d2980409c4d68960262337,
        type: 3}
      propertyPath: m_Name
      value: Hair_Short_Fringe_01_M Variant
      objectReference: {fileID: 0}
    - target: {fileID: 952821851520060634, guid: 23b39f9dd0d2980409c4d68960262337,
        type: 3}
      propertyPath: m_CastShadows
      value: 0
      objectReference: {fileID: 0}
    - target: {fileID: 952821851520060634, guid: 23b39f9dd0d2980409c4d68960262337,
        type: 3}
      propertyPath: m_Materials.Array.data[0]
      value: 
      objectReference: {fileID: 2100000, guid: 611c67d6c59b84d45b58a856f2969ddb, type: 2}
    - target: {fileID: 4742473837712756890, guid: 23b39f9dd0d2980409c4d68960262337,
        type: 3}
      propertyPath: m_LODs.Array.data[0].screenRelativeHeight
      value: 0.15194404
      objectReference: {fileID: 0}
    - target: {fileID: 4742473837712756890, guid: 23b39f9dd0d2980409c4d68960262337,
        type: 3}
      propertyPath: m_LODs.Array.data[1].screenRelativeHeight
      value: 0.0617146
      objectReference: {fileID: 0}
    - target: {fileID: 5428058583498081461, guid: 23b39f9dd0d2980409c4d68960262337,
        type: 3}
      propertyPath: m_CastShadows
      value: 3
      objectReference: {fileID: 0}
    - target: {fileID: 5868065496839256684, guid: 23b39f9dd0d2980409c4d68960262337,
        type: 3}
      propertyPath: m_CastShadows
      value: 0
      objectReference: {fileID: 0}
    - target: {fileID: 5868065496839256684, guid: 23b39f9dd0d2980409c4d68960262337,
        type: 3}
      propertyPath: m_Materials.Array.data[0]
      value: 
      objectReference: {fileID: 2100000, guid: 611c67d6c59b84d45b58a856f2969ddb, type: 2}
    m_RemovedComponents: []
  m_SourcePrefab: {fileID: 100100000, guid: 23b39f9dd0d2980409c4d68960262337, type: 3}
