%YAML 1.1
%TAG !u! tag:unity3d.com,2011:
--- !u!114 &-6605459782340829755
MonoBehaviour:
  m_ObjectHideFlags: 11
  m_CorrespondingSourceObject: {fileID: 0}
  m_PrefabInstance: {fileID: 0}
  m_PrefabAsset: {fileID: 0}
  m_GameObject: {fileID: 0}
  m_Enabled: 1
  m_EditorHideFlags: 0
  m_Script: {fileID: 11500000, guid: d0353a89b1f911e48b9e16bdc9f2e058, type: 3}
  m_Name: 
  m_EditorClassIdentifier: 
  version: 5
--- !u!21 &2100000
Material:
  serializedVersion: 8
  m_ObjectHideFlags: 0
  m_CorrespondingSourceObject: {fileID: 0}
  m_PrefabInstance: {fileID: 0}
  m_PrefabAsset: {fileID: 0}
  m_Name: MI_Board_A
  m_Shader: {fileID: 4800000, guid: 02e72e21a9ab62048aa8ce3a11cafa43, type: 3}
  m_ValidKeywords: []
  m_InvalidKeywords:
  - _MAT2_COLORTEXTURE_ON
  - _MAT3_COLORTEXTURE_ON
  - _METALLICGLOSSMAP
  - _NORMALMAP
  m_LightmapFlags: 4
  m_EnableInstancingVariants: 1
  m_DoubleSidedGI: 0
  m_CustomRenderQueue: 2000
  stringTagMap: {}
  disabledShaderPasses: []
  m_SavedProperties:
    serializedVersion: 3
    m_TexEnvs:
    - Material_Texture2D_0:
        m_Texture: {fileID: 2800000, guid: abc00000000006754925567428814264, type: 3}
        m_Scale: {x: 1, y: 1}
        m_Offset: {x: 0, y: 0}
    - Material_Texture2D_1:
        m_Texture: {fileID: 2800000, guid: abc00000000010953117940880504384, type: 3}
        m_Scale: {x: 1, y: 1}
        m_Offset: {x: 0, y: 0}
    - Material_Texture2D_2:
        m_Texture: {fileID: 2800000, guid: abc00000000002993842768313688990, type: 3}
        m_Scale: {x: 1, y: 1}
        m_Offset: {x: 0, y: 0}
    - Material_Texture2D_3:
        m_Texture: {fileID: 2800000, guid: 262135acc86249d499230f9e47c49024, type: 3}
        m_Scale: {x: 1, y: 1}
        m_Offset: {x: 0, y: 0}
    - Material_Texture2D_4:
        m_Texture: {fileID: 2800000, guid: abc00000000013474387870728954763, type: 3}
        m_Scale: {x: 1, y: 1}
        m_Offset: {x: 0, y: 0}
    - _BakedNormal:
        m_Texture: {fileID: 2800000, guid: abc00000000014974086189499053042, type: 3}
        m_Scale: {x: 1, y: 1}
        m_Offset: {x: 0, y: 0}
    - _BlendDetail_R:
        m_Texture: {fileID: 2800000, guid: abc00000000013913144832383490117, type: 3}
        m_Scale: {x: 1, y: 1}
        m_Offset: {x: 0, y: 0}
    - _BlendMask_R:
        m_Texture: {fileID: 2800000, guid: abc00000000013913144832383490117, type: 3}
        m_Scale: {x: 1, y: 1}
        m_Offset: {x: 0, y: 0}
    - _Blend_Mask_G:
        m_Texture: {fileID: 2800000, guid: abc00000000013913144832383490117, type: 3}
        m_Scale: {x: 1, y: 1}
        m_Offset: {x: 0, y: 0}
    - _BumpMap:
        m_Texture: {fileID: 2800000, guid: abc00000000006754925567428814264, type: 3}
        m_Scale: {x: 1, y: 1}
        m_Offset: {x: 0, y: 0}
    - _DetailAlbedoMap:
        m_Texture: {fileID: 0}
        m_Scale: {x: 1, y: 1}
        m_Offset: {x: 0, y: 0}
    - _DetailMask:
        m_Texture: {fileID: 0}
        m_Scale: {x: 1, y: 1}
        m_Offset: {x: 0, y: 0}
    - _DetailNormalMap:
        m_Texture: {fileID: 0}
        m_Scale: {x: 1, y: 1}
        m_Offset: {x: 0, y: 0}
    - _EmissionMap:
        m_Texture: {fileID: 0}
        m_Scale: {x: 1, y: 1}
        m_Offset: {x: 0, y: 0}
    - _MainTex:
        m_Texture: {fileID: 2800000, guid: abc00000000010953117940880504384, type: 3}
        m_Scale: {x: 1, y: 1}
        m_Offset: {x: 0, y: 0}
    - _Mat1_BaseTexture:
        m_Texture: {fileID: 2800000, guid: abc00000000012436328587221969967, type: 3}
        m_Scale: {x: 1, y: 1}
        m_Offset: {x: 0, y: 0}
    - _Mat1_Base_Normal:
        m_Texture: {fileID: 2800000, guid: abc00000000006103509228571946067, type: 3}
        m_Scale: {x: 1, y: 1}
        m_Offset: {x: 0, y: 0}
    - _Mat1_RoughnessT:
        m_Texture: {fileID: 2800000, guid: abc00000000014223320513168256840, type: 3}
        m_Scale: {x: 1, y: 1}
        m_Offset: {x: 0, y: 0}
    - _Mat2_BaseTexture:
        m_Texture: {fileID: 2800000, guid: abc00000000007041358304285632009, type: 3}
        m_Scale: {x: 1, y: 1}
        m_Offset: {x: 0, y: 0}
    - _Mat2_Base_Normal:
        m_Texture: {fileID: 2800000, guid: abc00000000006103509228571946067, type: 3}
        m_Scale: {x: 1, y: 1}
        m_Offset: {x: 0, y: 0}
    - _Mat2_Mask_Variation:
        m_Texture: {fileID: 2800000, guid: abc00000000008775636167068768934, type: 3}
        m_Scale: {x: 1, y: 1}
        m_Offset: {x: 0, y: 0}
    - _Mat2_RoughnessT:
        m_Texture: {fileID: 2800000, guid: abc00000000014223320513168256840, type: 3}
        m_Scale: {x: 1, y: 1}
        m_Offset: {x: 0, y: 0}
    - _Mat3_BaseTexture:
        m_Texture: {fileID: 2800000, guid: abc00000000002657577063544420420, type: 3}
        m_Scale: {x: 1, y: 1}
        m_Offset: {x: 0, y: 0}
    - _Mat3_Base_Normal:
        m_Texture: {fileID: 2800000, guid: abc00000000016124000965088101700, type: 3}
        m_Scale: {x: 1, y: 1}
        m_Offset: {x: 0, y: 0}
    - _Mat3_RoughnessT:
        m_Texture: {fileID: 2800000, guid: abc00000000009428763281507424020, type: 3}
        m_Scale: {x: 1, y: 1}
        m_Offset: {x: 0, y: 0}
    - _MetallicGlossMap:
        m_Texture: {fileID: 2800000, guid: abc00000000002993842768313688990, type: 3}
        m_Scale: {x: 1, y: 1}
        m_Offset: {x: 0, y: 0}
    - _OcclusionMap:
        m_Texture: {fileID: 0}
        m_Scale: {x: 1, y: 1}
        m_Offset: {x: 0, y: 0}
    - _ParallaxMap:
        m_Texture: {fileID: 0}
        m_Scale: {x: 1, y: 1}
        m_Offset: {x: 0, y: 0}
    - _SpecGlossMap:
        m_Texture: {fileID: 0}
        m_Scale: {x: 1, y: 1}
        m_Offset: {x: 0, y: 0}
    - _texcoord:
        m_Texture: {fileID: 0}
        m_Scale: {x: 1, y: 1}
        m_Offset: {x: 0, y: 0}
    - unity_Lightmaps:
        m_Texture: {fileID: 0}
        m_Scale: {x: 1, y: 1}
        m_Offset: {x: 0, y: 0}
    - unity_LightmapsInd:
        m_Texture: {fileID: 0}
        m_Scale: {x: 1, y: 1}
        m_Offset: {x: 0, y: 0}
    - unity_ShadowMasks:
        m_Texture: {fileID: 0}
        m_Scale: {x: 1, y: 1}
        m_Offset: {x: 0, y: 0}
    m_Ints: []
    m_Floats:
    - _AlphaCutoff: 0.5
    - _Brightness: 1
    - _BumpScale: 1
    - _ColorMask: 0
    - _Cutoff: 0.5
    - _Desaturation: 0
    - _DetailNormalMapScale: 1
    - _Detail_Fallof_R: 3.4
    - _Detail_Sharp_R: 3.4
    - _DstBlend: 0
    - _EnvironmentReflections: 1
    - _Global_G: 1.1
    - _Global_R: 1.1
    - _GlossMapScale: 1
    - _Glossiness: 0.5
    - _GlossyReflections: 1
    - _MaskInvert: 0
    - _Mat1_BakedMaskUV: 0
    - _Mat1_BakedNormal: 0
    - _Mat1_BakedUV1: 1
    - _Mat1_BaseColor: 1
    - _Mat1_ColorTexture: 0
    - _Mat1_Desaturation: 0.327
    - _Mat1_Metallic: 0
    - _Mat1_Roughness: 0.5
    - _Mat1_RoughnessTexture: 0
    - _Mat1_TextureDetails: 0.327
    - _Mat1_UV: 0.77
    - _Mat2_BaseColor: 3.75
    - _Mat2_ColorTexture: 1
    - _Mat2_Desaturation: 0.327
    - _Mat2_Metallic: 0
    - _Mat2_Roughness: 0
    - _Mat2_RoughnessTexture: 0
    - _Mat2_UV: 2
    - _Mat3_BaseColor: 3.75
    - _Mat3_ColorTexture: 1
    - _Mat3_Desaturation: 0.327
    - _Mat3_Metallic: 0
    - _Mat3_Roughness: 0
    - _Mat3_RoughnessTexture: 0
    - _Mat3_UV: 2
    - _Metallic: 0
    - _Mode: 0
    - _Normal_Invert: -1
    - _Normal_Power: 0.00015
    - _OcclusionStrength: 1
    - _Parallax: 0.02
    - _QueueControl: 0
    - _QueueOffset: 0
    - _ReceiveShadows: 1
    - _Roughness: 0.43
    - _SmoothnessTextureChannel: 0
    - _SpecularHighlights: 1
    - _SrcBlend: 1
    - _UVSec: 0
    - _UseColor: 0
    - _VColor_G_Scale: 1.37
    - _VColor_R_Scale: 1.37
    - _ZWrite: 1
    - __dirty: 0
    m_Colors:
    - _BaseColor: {r: 1, g: 1, b: 1, a: 1}
    - _Color: {r: 1, g: 1, b: 1, a: 1}
    - _EmissionColor: {r: 0, g: 0, b: 0, a: 1}
    - _Mat1_Color: {r: 1, g: 1, b: 1, a: 0}
    - _SpecColor: {r: 0.5, g: 0.5, b: 0.5, a: 0.5}
  m_BuildTextureStacks: []
