%YAML 1.1
%TAG !u! tag:unity3d.com,2011:
--- !u!21 &2100000
Material:
  serializedVersion: 8
  m_ObjectHideFlags: 0
  m_CorrespondingSourceObject: {fileID: 0}
  m_PrefabInstance: {fileID: 0}
  m_PrefabAsset: {fileID: 0}
  m_Name: MI_Generic_Plastic-A_White
  m_Shader: {fileID: 4800000, guid: 71a4e521d2e067e47b0887d29a219bec, type: 3}
  m_ValidKeywords:
  - _USECOLOR_2_ON
  - _USECOLOR_ON
  m_InvalidKeywords: []
  m_LightmapFlags: 4
  m_EnableInstancingVariants: 1
  m_DoubleSidedGI: 0
  m_CustomRenderQueue: -1
  stringTagMap: {}
  disabledShaderPasses: []
  m_SavedProperties:
    serializedVersion: 3
    m_TexEnvs:
    - Material_Texture2D_0:
        m_Texture: {fileID: 2800000, guid: abc00000000013913144832383490117, type: 3}
        m_Scale: {x: 1, y: 1}
        m_Offset: {x: 0, y: 0}
    - Material_Texture2D_1:
        m_Texture: {fileID: 2800000, guid: abc00000000012122850438009226639, type: 3}
        m_Scale: {x: 1, y: 1}
        m_Offset: {x: 0, y: 0}
    - Material_Texture2D_2:
        m_Texture: {fileID: 2800000, guid: abc00000000012436328587221969967, type: 3}
        m_Scale: {x: 1, y: 1}
        m_Offset: {x: 0, y: 0}
    - _BakedNormal:
        m_Texture: {fileID: 2800000, guid: abc00000000014730655711153456962, type: 3}
        m_Scale: {x: 1, y: 1}
        m_Offset: {x: 0, y: 0}
    - _MainTex:
        m_Texture: {fileID: 0}
        m_Scale: {x: 1, y: 1}
        m_Offset: {x: 0, y: 0}
    - _Mat1_BaseTexture:
        m_Texture: {fileID: 2800000, guid: 540c5c448c2cb2c42b40d71f4bb35deb, type: 3}
        m_Scale: {x: 1, y: 1}
        m_Offset: {x: 0, y: 0}
    - _Mat1_Base_Normal:
        m_Texture: {fileID: 2800000, guid: abc00000000012122850438009226639, type: 3}
        m_Scale: {x: 1, y: 1}
        m_Offset: {x: 0, y: 0}
    - _Mat1_RoughnessT:
        m_Texture: {fileID: 2800000, guid: abc00000000014223320513168256840, type: 3}
        m_Scale: {x: 1, y: 1}
        m_Offset: {x: 0, y: 0}
    - _Mat2_BaseTexture:
        m_Texture: {fileID: 2800000, guid: 540c5c448c2cb2c42b40d71f4bb35deb, type: 3}
        m_Scale: {x: 1, y: 1}
        m_Offset: {x: 0, y: 0}
    - _Mat2_Base_Normal:
        m_Texture: {fileID: 2800000, guid: abc00000000012122850438009226639, type: 3}
        m_Scale: {x: 1, y: 1}
        m_Offset: {x: 0, y: 0}
    - _Mat2_RoughnessT:
        m_Texture: {fileID: 2800000, guid: abc00000000012436328587221969967, type: 3}
        m_Scale: {x: 1, y: 1}
        m_Offset: {x: 0, y: 0}
    - _T_Mask_Variation_A1:
        m_Texture: {fileID: 2800000, guid: abc00000000008775636167068768934, type: 3}
        m_Scale: {x: 1, y: 1}
        m_Offset: {x: 0, y: 0}
    - _T_VertexBlend_Mask:
        m_Texture: {fileID: 2800000, guid: abc00000000013913144832383490117, type: 3}
        m_Scale: {x: 1, y: 1}
        m_Offset: {x: 0, y: 0}
    - _texcoord:
        m_Texture: {fileID: 0}
        m_Scale: {x: 1, y: 1}
        m_Offset: {x: 0, y: 0}
    - unity_Lightmaps:
        m_Texture: {fileID: 0}
        m_Scale: {x: 1, y: 1}
        m_Offset: {x: 0, y: 0}
    - unity_LightmapsInd:
        m_Texture: {fileID: 0}
        m_Scale: {x: 1, y: 1}
        m_Offset: {x: 0, y: 0}
    - unity_ShadowMasks:
        m_Texture: {fileID: 0}
        m_Scale: {x: 1, y: 1}
        m_Offset: {x: 0, y: 0}
    m_Ints: []
    m_Floats:
    - _AlphaCutoff: 0.5
    - _DstBlend: 0
    - _EnvironmentReflections: 1
    - _Global_G: 3.07
    - _Mat1_BakedMaskUV: 0
    - _Mat1_BakedNormal: 0
    - _Mat1_BakedUV1: 1
    - _Mat1_BaseColor: 1
    - _Mat1_ColorTexture: 0
    - _Mat1_Metallic: 0
    - _Mat1_Roughness: 0.5
    - _Mat1_RoughnessTexture: 0
    - _Mat1_TextureDetails: 0.18
    - _Mat1_UV: 1.9
    - _Mat2_BaseColor: 1.26
    - _Mat2_ColorTexture: 0
    - _Mat2_Metallic: 0
    - _Mat2_Roughness: 0.423
    - _Mat2_RoughnessTexture: 0
    - _Mat2_UV: 2
    - _Normal_Power: 0.00079
    - _QueueControl: 0
    - _QueueOffset: 0
    - _ReceiveShadows: 1
    - _SpecularHighlights: 1
    - _SrcBlend: 1
    - _UVSec: 0
    - _UseColor: 1
    - _UseColor_2: 1
    - _VColor_G_Scale: 1.85
    - _ZWrite: 1
    - __dirty: 0
    m_Colors:
    - View_BufferSizeAndInvSize: {r: 1920, g: 1080, b: 0.00052, a: 0.00092}
    - _Color: {r: 0.8, g: 0.8, b: 0.8, a: 1}
    - _EmissionColor: {r: 0, g: 0, b: 0, a: 1}
    - _Mat1_Color: {r: 0.6886792, g: 0.6886792, b: 0.6886792, a: 0}
    - _Mat2_Color: {r: 0.5849056, g: 0.5849056, b: 0.5849056, a: 1}
  m_BuildTextureStacks: []
