%YAML 1.1
%TAG !u! tag:unity3d.com,2011:
--- !u!21 &2100000
Material:
  serializedVersion: 8
  m_ObjectHideFlags: 0
  m_CorrespondingSourceObject: {fileID: 0}
  m_PrefabInstance: {fileID: 0}
  m_PrefabAsset: {fileID: 0}
  m_Name: MI_Ship_Paint-A2-M
  m_Shader: {fileID: 4800000, guid: 6f85a7b2bd3a2b442a7704ae691d72e2, type: 3}
  m_ValidKeywords:
  - _MAT2_COLORTEXTURE_ON
  - _MAT3_COLORTEXTURE_ON
  - _MAT3_ROUGHNESSTEXTURE_ON
  - _USECOLOR_ON
  m_InvalidKeywords: []
  m_LightmapFlags: 4
  m_EnableInstancingVariants: 1
  m_DoubleSidedGI: 0
  m_CustomRenderQueue: -1
  stringTagMap: {}
  disabledShaderPasses: []
  m_SavedProperties:
    serializedVersion: 3
    m_TexEnvs:
    - Material_Texture2D_0:
        m_Texture: {fileID: 2800000, guid: abc00000000013913144832383490117, type: 3}
        m_Scale: {x: 1, y: 1}
        m_Offset: {x: 0, y: 0}
    - Material_Texture2D_1:
        m_Texture: {fileID: 2800000, guid: abc00000000016812175197293131207, type: 3}
        m_Scale: {x: 1, y: 1}
        m_Offset: {x: 0, y: 0}
    - Material_Texture2D_2:
        m_Texture: {fileID: 2800000, guid: abc00000000004788954115218271744, type: 3}
        m_Scale: {x: 1, y: 1}
        m_Offset: {x: 0, y: 0}
    - Material_Texture2D_3:
        m_Texture: {fileID: 2800000, guid: abc00000000014850545317076859469, type: 3}
        m_Scale: {x: 1, y: 1}
        m_Offset: {x: 0, y: 0}
    - Material_Texture2D_4:
        m_Texture: {fileID: 2800000, guid: abc00000000006103509228571946067, type: 3}
        m_Scale: {x: 1, y: 1}
        m_Offset: {x: 0, y: 0}
    - Material_Texture2D_5:
        m_Texture: {fileID: 2800000, guid: abc00000000008775636167068768934, type: 3}
        m_Scale: {x: 1, y: 1}
        m_Offset: {x: 0, y: 0}
    - Material_Texture2D_6:
        m_Texture: {fileID: 2800000, guid: abc00000000002657577063544420420, type: 3}
        m_Scale: {x: 1, y: 1}
        m_Offset: {x: 0, y: 0}
    - Material_Texture2D_7:
        m_Texture: {fileID: 2800000, guid: abc00000000003834216999323426455, type: 3}
        m_Scale: {x: 1, y: 1}
        m_Offset: {x: 0, y: 0}
    - Material_Texture2D_8:
        m_Texture: {fileID: 2800000, guid: abc00000000007041358304285632009, type: 3}
        m_Scale: {x: 1, y: 1}
        m_Offset: {x: 0, y: 0}
    - Material_Texture2D_9:
        m_Texture: {fileID: 2800000, guid: abc00000000014223320513168256840, type: 3}
        m_Scale: {x: 1, y: 1}
        m_Offset: {x: 0, y: 0}
    - _BakedNormal:
        m_Texture: {fileID: 0}
        m_Scale: {x: 1, y: 1}
        m_Offset: {x: 0, y: 0}
    - _BlendDetail_R:
        m_Texture: {fileID: 2800000, guid: abc00000000016812175197293131207, type: 3}
        m_Scale: {x: 1, y: 1}
        m_Offset: {x: 0, y: 0}
    - _BlendMask_R:
        m_Texture: {fileID: 2800000, guid: abc00000000013913144832383490117, type: 3}
        m_Scale: {x: 1, y: 1}
        m_Offset: {x: 0, y: 0}
    - _Blend_Mask_G:
        m_Texture: {fileID: 2800000, guid: abc00000000013913144832383490117, type: 3}
        m_Scale: {x: 1, y: 1}
        m_Offset: {x: 0, y: 0}
    - _MainTex:
        m_Texture: {fileID: 0}
        m_Scale: {x: 1, y: 1}
        m_Offset: {x: 0, y: 0}
    - _Mat1_BaseTexture:
        m_Texture: {fileID: 2800000, guid: abc00000000006836548049067728764, type: 3}
        m_Scale: {x: 1, y: 1}
        m_Offset: {x: 0, y: 0}
    - _Mat1_Base_Normal:
        m_Texture: {fileID: 2800000, guid: abc00000000006103509228571946067, type: 3}
        m_Scale: {x: 1, y: 1}
        m_Offset: {x: 0, y: 0}
    - _Mat1_RoughnessT:
        m_Texture: {fileID: 2800000, guid: abc00000000014223320513168256840, type: 3}
        m_Scale: {x: 1, y: 1}
        m_Offset: {x: 0, y: 0}
    - _Mat2_BaseTexture:
        m_Texture: {fileID: 2800000, guid: abc00000000007041358304285632009, type: 3}
        m_Scale: {x: 1, y: 1}
        m_Offset: {x: 0, y: 0}
    - _Mat2_Base_Normal:
        m_Texture: {fileID: 2800000, guid: abc00000000006103509228571946067, type: 3}
        m_Scale: {x: 1, y: 1}
        m_Offset: {x: 0, y: 0}
    - _Mat2_Mask_Variation:
        m_Texture: {fileID: 2800000, guid: abc00000000008775636167068768934, type: 3}
        m_Scale: {x: 1, y: 1}
        m_Offset: {x: 0, y: 0}
    - _Mat2_RoughnessT:
        m_Texture: {fileID: 2800000, guid: abc00000000014223320513168256840, type: 3}
        m_Scale: {x: 1, y: 1}
        m_Offset: {x: 0, y: 0}
    - _Mat3_BaseTexture:
        m_Texture: {fileID: 2800000, guid: abc00000000011835080966170663043, type: 3}
        m_Scale: {x: 1, y: 1}
        m_Offset: {x: 0, y: 0}
    - _Mat3_Base_Normal:
        m_Texture: {fileID: 2800000, guid: abc00000000016124000965088101700, type: 3}
        m_Scale: {x: 1, y: 1}
        m_Offset: {x: 0, y: 0}
    - _Mat3_RoughnessT:
        m_Texture: {fileID: 2800000, guid: abc00000000009428763281507424020, type: 3}
        m_Scale: {x: 1, y: 1}
        m_Offset: {x: 0, y: 0}
    - _texcoord:
        m_Texture: {fileID: 0}
        m_Scale: {x: 1, y: 1}
        m_Offset: {x: 0, y: 0}
    - unity_Lightmaps:
        m_Texture: {fileID: 0}
        m_Scale: {x: 1, y: 1}
        m_Offset: {x: 0, y: 0}
    - unity_LightmapsInd:
        m_Texture: {fileID: 0}
        m_Scale: {x: 1, y: 1}
        m_Offset: {x: 0, y: 0}
    - unity_ShadowMasks:
        m_Texture: {fileID: 0}
        m_Scale: {x: 1, y: 1}
        m_Offset: {x: 0, y: 0}
    m_Ints: []
    m_Floats:
    - _AlphaCutoff: 0.5
    - _Detail_Fallof_R: 1.14
    - _Detail_Sharp_G: 3.88
    - _Detail_Sharp_R: 9.57
    - _DstBlend: 0
    - _EnvironmentReflections: 1
    - _Global_G: 1.27
    - _Global_R: 1.48
    - _Mat1_BakedMaskUV: 0
    - _Mat1_BakedNormal: 0
    - _Mat1_BakedUV1: 1
    - _Mat1_BaseColor: 0.76
    - _Mat1_ColorTexture: 0
    - _Mat1_Desaturation: 0
    - _Mat1_Metallic: 0
    - _Mat1_Roughness: 0.633
    - _Mat1_RoughnessTexture: 0
    - _Mat1_TextureDetails: 0.375
    - _Mat1_UV: 0.62
    - _Mat2_BaseColor: 0.87
    - _Mat2_ColorTexture: 1
    - _Mat2_Desaturation: 0.327
    - _Mat2_Metallic: 0
    - _Mat2_Roughness: 0
    - _Mat2_RoughnessTexture: 0
    - _Mat2_UV: 1.78
    - _Mat3_BaseColor: 1.13
    - _Mat3_ColorTexture: 1
    - _Mat3_Desaturation: 0.327
    - _Mat3_Metallic: 1
    - _Mat3_Roughness: 0.557
    - _Mat3_RoughnessTexture: 1
    - _Mat3_UV: 2.78
    - _Normal_Power: 0.00303
    - _QueueControl: 0
    - _QueueOffset: 0
    - _ReceiveShadows: 1
    - _SpecularHighlights: 1
    - _SrcBlend: 1
    - _UVSec: 0
    - _UseColor: 1
    - _VColor_G_Scale: 0.33
    - _VColor_R_Scale: 0.43
    - _ZWrite: 1
    - __dirty: 0
    m_Colors:
    - View_BufferSizeAndInvSize: {r: 1920, g: 1080, b: 0.00052, a: 0.00092}
    - _Color: {r: 0.8, g: 0.8, b: 0.8, a: 1}
    - _EmissionColor: {r: 0, g: 0, b: 0, a: 1}
    - _Mat1_Color: {r: 0.2159333, g: 0.4318667, b: 0.4739999, a: 1}
  m_BuildTextureStacks: []
