%YAML 1.1
%TAG !u! tag:unity3d.com,2011:
--- !u!1001 &5244050699404799510
PrefabInstance:
  m_ObjectHideFlags: 0
  serializedVersion: 2
  m_Modification:
    m_TransformParent: {fileID: 0}
    m_Modifications:
    - target: {fileID: -8679921383154817045, guid: 5b31ad1e38cd87f42a698f1a10d6768d,
        type: 3}
      propertyPath: m_RootOrder
      value: 0
      objectReference: {fileID: 0}
    - target: {fileID: -8679921383154817045, guid: 5b31ad1e38cd87f42a698f1a10d6768d,
        type: 3}
      propertyPath: m_LocalPosition.x
      value: 0
      objectReference: {fileID: 0}
    - target: {fileID: -8679921383154817045, guid: 5b31ad1e38cd87f42a698f1a10d6768d,
        type: 3}
      propertyPath: m_LocalPosition.y
      value: 0
      objectReference: {fileID: 0}
    - target: {fileID: -8679921383154817045, guid: 5b31ad1e38cd87f42a698f1a10d6768d,
        type: 3}
      propertyPath: m_LocalPosition.z
      value: 0
      objectReference: {fileID: 0}
    - target: {fileID: -8679921383154817045, guid: 5b31ad1e38cd87f42a698f1a10d6768d,
        type: 3}
      propertyPath: m_LocalRotation.w
      value: 1
      objectReference: {fileID: 0}
    - target: {fileID: -8679921383154817045, guid: 5b31ad1e38cd87f42a698f1a10d6768d,
        type: 3}
      propertyPath: m_LocalRotation.x
      value: 0
      objectReference: {fileID: 0}
    - target: {fileID: -8679921383154817045, guid: 5b31ad1e38cd87f42a698f1a10d6768d,
        type: 3}
      propertyPath: m_LocalRotation.y
      value: 0
      objectReference: {fileID: 0}
    - target: {fileID: -8679921383154817045, guid: 5b31ad1e38cd87f42a698f1a10d6768d,
        type: 3}
      propertyPath: m_LocalRotation.z
      value: 0
      objectReference: {fileID: 0}
    - target: {fileID: -8679921383154817045, guid: 5b31ad1e38cd87f42a698f1a10d6768d,
        type: 3}
      propertyPath: m_LocalEulerAnglesHint.x
      value: 0
      objectReference: {fileID: 0}
    - target: {fileID: -8679921383154817045, guid: 5b31ad1e38cd87f42a698f1a10d6768d,
        type: 3}
      propertyPath: m_LocalEulerAnglesHint.y
      value: 0
      objectReference: {fileID: 0}
    - target: {fileID: -8679921383154817045, guid: 5b31ad1e38cd87f42a698f1a10d6768d,
        type: 3}
      propertyPath: m_LocalEulerAnglesHint.z
      value: 0
      objectReference: {fileID: 0}
    - target: {fileID: -1274862391494494877, guid: 5b31ad1e38cd87f42a698f1a10d6768d,
        type: 3}
      propertyPath: m_Materials.Array.data[0]
      value: 
      objectReference: {fileID: 2100000, guid: 86f71604a1dbd3e43a5197bb6dfd2948, type: 2}
    - target: {fileID: 919132149155446097, guid: 5b31ad1e38cd87f42a698f1a10d6768d,
        type: 3}
      propertyPath: m_Name
      value: Denim_Jacket_Navy
      objectReference: {fileID: 0}
    - target: {fileID: 3191062111670948255, guid: 5b31ad1e38cd87f42a698f1a10d6768d,
        type: 3}
      propertyPath: m_Materials.Array.data[0]
      value: 
      objectReference: {fileID: 2100000, guid: 86f71604a1dbd3e43a5197bb6dfd2948, type: 2}
    - target: {fileID: 6857078205102250940, guid: 5b31ad1e38cd87f42a698f1a10d6768d,
        type: 3}
      propertyPath: m_Materials.Array.data[0]
      value: 
      objectReference: {fileID: 2100000, guid: 86f71604a1dbd3e43a5197bb6dfd2948, type: 2}
    m_RemovedComponents: []
  m_SourcePrefab: {fileID: 100100000, guid: 5b31ad1e38cd87f42a698f1a10d6768d, type: 3}
