%YAML 1.1
%TAG !u! tag:unity3d.com,2011:
--- !u!114 &11400000
MonoBehaviour:
  m_ObjectHideFlags: 0
  m_CorrespondingSourceObject: {fileID: 0}
  m_PrefabInstance: {fileID: 0}
  m_PrefabAsset: {fileID: 0}
  m_GameObject: {fileID: 0}
  m_Enabled: 1
  m_EditorHideFlags: 0
  m_Script: {fileID: 11500000, guid: 9ace675cbbeb03b4c99c5d7935ec65a6, type: 3}
  m_Name: 10 pranie done
  m_EditorClassIdentifier: 
  audioClip: {fileID: 8300000, guid: a49bcc30d44d4544f856a5b33b928bde, type: 3}
  txt: Man, I love this sound. Sound of fresh clothes!
