%YAML 1.1
%TAG !u! tag:unity3d.com,2011:
--- !u!114 &11400000
MonoBehaviour:
  m_ObjectHideFlags: 0
  m_CorrespondingSourceObject: {fileID: 0}
  m_PrefabInstance: {fileID: 0}
  m_PrefabAsset: {fileID: 0}
  m_GameObject: {fileID: 0}
  m_Enabled: 1
  m_EditorHideFlags: 0
  m_Script: {fileID: 11500000, guid: 9ace675cbbeb03b4c99c5d7935ec65a6, type: 3}
  m_Name: 31 done house
  m_EditorClassIdentifier: 
  audioClip: {fileID: 8300000, guid: 85fe44fae1e598f4f855ba031415319c, type: 3}
  txt: Another day, another house clean.
