%YAML 1.1
%TAG !u! tag:unity3d.com,2011:
--- !u!21 &2100000
Material:
  serializedVersion: 8
  m_ObjectHideFlags: 0
  m_CorrespondingSourceObject: {fileID: 0}
  m_PrefabInstance: {fileID: 0}
  m_PrefabAsset: {fileID: 0}
  m_Name: MI_BathTiles_B 1
  m_Shader: {fileID: 4800000, guid: d1bff7295384ffa4dafcb3d9fdccc19f, type: 3}
  m_Parent: {fileID: 0}
  m_ModifiedSerializedProperties: 0
  m_ValidKeywords:
  - _MASKINVERT_ON
  m_InvalidKeywords: []
  m_LightmapFlags: 4
  m_EnableInstancingVariants: 1
  m_DoubleSidedGI: 0
  m_CustomRenderQueue: -1
  stringTagMap: {}
  disabledShaderPasses: []
  m_LockedProperties: 
  m_SavedProperties:
    serializedVersion: 3
    m_TexEnvs:
    - Material_Texture2D_0:
        m_Texture: {fileID: 2800000, guid: 4a6d2f4eca24c1945b2f815584a4e844, type: 3}
        m_Scale: {x: 1, y: 1}
        m_Offset: {x: 0, y: 0}
    - Material_Texture2D_1:
        m_Texture: {fileID: 2800000, guid: 84f97ffa3ecf56946b6aaa209717a38f, type: 3}
        m_Scale: {x: 1, y: 1}
        m_Offset: {x: 0, y: 0}
    - Material_Texture2D_2:
        m_Texture: {fileID: 2800000, guid: 0097ef8d9a2361c499d69d3f03aa1f65, type: 3}
        m_Scale: {x: 1, y: 1}
        m_Offset: {x: 0, y: 0}
    - Material_Texture2D_4:
        m_Texture: {fileID: 2800000, guid: f5d91f859222bfa43b3b2097731cd875, type: 3}
        m_Scale: {x: 1, y: 1}
        m_Offset: {x: 0, y: 0}
    - Material_TextureD_3:
        m_Texture: {fileID: 0}
        m_Scale: {x: 1, y: 1}
        m_Offset: {x: 0, y: 0}
    - _MainTex:
        m_Texture: {fileID: 0}
        m_Scale: {x: 1, y: 1}
        m_Offset: {x: 0, y: 0}
    - _texcoord:
        m_Texture: {fileID: 0}
        m_Scale: {x: 1, y: 1}
        m_Offset: {x: 0, y: 0}
    - unity_Lightmaps:
        m_Texture: {fileID: 0}
        m_Scale: {x: 1, y: 1}
        m_Offset: {x: 0, y: 0}
    - unity_LightmapsInd:
        m_Texture: {fileID: 0}
        m_Scale: {x: 1, y: 1}
        m_Offset: {x: 0, y: 0}
    - unity_ShadowMasks:
        m_Texture: {fileID: 0}
        m_Scale: {x: 1, y: 1}
        m_Offset: {x: 0, y: 0}
    m_Ints: []
    m_Floats:
    - _AlphaCutoff: 0.5
    - _Brightness: 4
    - _ColorMask: 0
    - _Desaturation: 0
    - _DstBlend: 0
    - _Emissive: 0
    - _EnvironmentReflections: 1
    - _Invert: 1
    - _MaskInvert: 1
    - _QueueControl: 0
    - _QueueOffset: 0
    - _ReceiveShadows: 1
    - _Roughness: 5
    - _Roughness_Alpha: 0
    - _Roughness_Invert: 0
    - _SpecularHighlights: 1
    - _SrcBlend: 1
    - _UV: 5
    - _UVSec: 0
    - _ZWrite: 1
    - __dirty: 0
    m_Colors:
    - View_BufferSizeAndInvSize: {r: 1920, g: 1080, b: 0.00052, a: 0.00092}
    - _Color: {r: 0, g: 0, b: 0, a: 1}
    - _EmissionColor: {r: 0, g: 0, b: 0, a: 1}
    - _UV_Offset: {r: 0, g: 0, b: 0, a: 0}
  m_BuildTextureStacks: []
