%YAML 1.1
%TAG !u! tag:unity3d.com,2011:
--- !u!114 &11400000
MonoBehaviour:
  m_ObjectHideFlags: 0
  m_CorrespondingSourceObject: {fileID: 0}
  m_PrefabInstance: {fileID: 0}
  m_PrefabAsset: {fileID: 0}
  m_GameObject: {fileID: 0}
  m_Enabled: 1
  m_EditorHideFlags: 0
  m_Script: {fileID: 11500000, guid: e7cd52ba1fd4e0e4c8c2a0a9700a6922, type: 3}
  m_Name: Q1 - kot
  m_EditorClassIdentifier: 
  m_text: Find a key and free Taylor's daughter {#Key}/{>#Key}
