%YAML 1.1
%TAG !u! tag:unity3d.com,2011:
--- !u!114 &-2624442844425203415
MonoBehaviour:
  m_ObjectHideFlags: 11
  m_CorrespondingSourceObject: {fileID: 0}
  m_PrefabInstance: {fileID: 0}
  m_PrefabAsset: {fileID: 0}
  m_GameObject: {fileID: 0}
  m_Enabled: 1
  m_EditorHideFlags: 0
  m_Script: {fileID: 11500000, guid: 639247ca83abc874e893eb93af2b5e44, type: 3}
  m_Name: 
  m_EditorClassIdentifier: 
  version: 0
--- !u!21 &2100000
Material:
  serializedVersion: 8
  m_ObjectHideFlags: 0
  m_CorrespondingSourceObject: {fileID: 0}
  m_PrefabInstance: {fileID: 0}
  m_PrefabAsset: {fileID: 0}
  m_Name: FX_MT_LinearSplash_05_2x5
  m_Shader: {fileID: -6465566751694194690, guid: d9cc33a123b5b4b4580a46ea8d110e76,
    type: 3}
  m_Parent: {fileID: 0}
  m_ModifiedSerializedProperties: 0
  m_ValidKeywords:
  - _SURFACE_TYPE_TRANSPARENT
  m_InvalidKeywords: []
  m_LightmapFlags: 4
  m_EnableInstancingVariants: 0
  m_DoubleSidedGI: 0
  m_CustomRenderQueue: 3000
  stringTagMap:
    RenderType: Transparent
  disabledShaderPasses:
  - DepthOnly
  m_LockedProperties: 
  m_SavedProperties:
    serializedVersion: 3
    m_TexEnvs:
    - _BaseMap:
        m_Texture: {fileID: 2800000, guid: 0e1ea360cab9f2f4095f10d8d34b38d7, type: 3}
        m_Scale: {x: 1, y: 1}
        m_Offset: {x: 0, y: 0}
    - _BumpMap:
        m_Texture: {fileID: 0}
        m_Scale: {x: 1, y: 1}
        m_Offset: {x: 0, y: 0}
    - _EmissionMap:
        m_Texture: {fileID: 0}
        m_Scale: {x: 1, y: 1}
        m_Offset: {x: 0, y: 0}
    - _GradientTexture:
        m_Texture: {fileID: 0}
        m_Scale: {x: 1, y: 1}
        m_Offset: {x: 0, y: 0}
    - _MainTexture:
        m_Texture: {fileID: 2800000, guid: 217dc1c632e4db143a640437d1bdd111, type: 3}
        m_Scale: {x: 1, y: 1}
        m_Offset: {x: 0, y: 0}
    - _NoiseTexture:
        m_Texture: {fileID: 2800000, guid: c08fe553da44f344c99c50a00b66dbcf, type: 3}
        m_Scale: {x: 1, y: 1}
        m_Offset: {x: 0, y: 0}
    - unity_Lightmaps:
        m_Texture: {fileID: 0}
        m_Scale: {x: 1, y: 1}
        m_Offset: {x: 0, y: 0}
    - unity_LightmapsInd:
        m_Texture: {fileID: 0}
        m_Scale: {x: 1, y: 1}
        m_Offset: {x: 0, y: 0}
    - unity_ShadowMasks:
        m_Texture: {fileID: 0}
        m_Scale: {x: 1, y: 1}
        m_Offset: {x: 0, y: 0}
    m_Ints: []
    m_Floats:
    - _AlphaClip: 0
    - _AlphaToMask: 0
    - _BUILTIN_AlphaClip: 0
    - _BUILTIN_Blend: 0
    - _BUILTIN_CullMode: 2
    - _BUILTIN_DstBlend: 0
    - _BUILTIN_QueueControl: -1
    - _BUILTIN_QueueOffset: 0
    - _BUILTIN_SrcBlend: 1
    - _BUILTIN_Surface: 1
    - _BUILTIN_ZTest: 4
    - _BUILTIN_ZWrite: 0
    - _BUILTIN_ZWriteControl: 0
    - _Blend: 0
    - _BlendOp: 0
    - _CameraFadingEnabled: 0
    - _CameraFarFadeDistance: 2
    - _CameraNearFadeDistance: 1
    - _CastShadows: 1
    - _ColorMode: 0
    - _Cull: 2
    - _CustomDataForDissolve: 0
    - _Cutoff: 0.5
    - _DistortionBlend: 0.5
    - _DistortionEnabled: 0
    - _DistortionStrength: 1
    - _DistortionStrengthScaled: 0.1
    - _DstBlend: 10
    - _EmissionSaturation: 2
    - _FlatDissolve: 0.52
    - _FlipbookBlending: 0
    - _FlipbookMode: 0
    - _Mode: 0
    - _NoiseEmissive: 0
    - _NoiseOpacity: 1
    - _OpacitySaturation: 2
    - _PreLerp: 0
    - _PreNoiseLerp: 0
    - _QueueControl: 0
    - _QueueOffset: 0
    - _SoftParticle: 0
    - _SoftParticlesEnabled: 0
    - _SoftParticlesFarFadeDistance: 1
    - _SoftParticlesNearFadeDistance: 0
    - _SrcBlend: 5
    - _Surface: 1
    - _UseDissolve_VertexAlphaByDeffault: 0
    - _UseGradient: 0
    - _UseSoftParticles: 0
    - _UseVertexForAlpha: 0
    - _UserLerp: 0
    - _ZTest: 8
    - _ZWrite: 0
    - _ZWriteControl: 0
    m_Colors:
    - _BaseColor: {r: 1, g: 1, b: 1, a: 1}
    - _BaseColorAddSubDiff: {r: 0, g: 0, b: 0, a: 0}
    - _CameraFadeParams: {r: 0, g: 0, b: 0, a: 0}
    - _Color: {r: 1, g: 1, b: 1, a: 1}
    - _EmissionColor: {r: 0, g: 0, b: 0, a: 1}
    - _FresnelHigh: {r: 1, g: 1, b: 1, a: 0}
    - _FresnelLow: {r: 0, g: 0, b: 0, a: 0}
    - _HighColor: {r: 0, g: 0, b: 0, a: 0}
    - _MainColor: {r: 1, g: 1, b: 1, a: 0}
    - _MinMaxSmoothStepDissolve: {r: 0, g: 0.2, b: 0, a: 0}
    - _NoiseHighColor: {r: 1, g: 1, b: 1, a: 1}
    - _NoiseLowColor: {r: 0, g: 0, b: 0, a: 0}
    - _NoisePanning: {r: 0, g: 0, b: 0, a: 0}
    - _NoiseTiling: {r: 1, g: 1, b: 0, a: 0}
    - _Panning: {r: 0, g: 0, b: 0, a: 0}
    - _SoftParticleFadeParams: {r: 0, g: 0, b: 0, a: 0}
  m_BuildTextureStacks: []
--- !u!114 &3044157688134135953
MonoBehaviour:
  m_ObjectHideFlags: 11
  m_CorrespondingSourceObject: {fileID: 0}
  m_PrefabInstance: {fileID: 0}
  m_PrefabAsset: {fileID: 0}
  m_GameObject: {fileID: 0}
  m_Enabled: 1
  m_EditorHideFlags: 0
  m_Script: {fileID: 11500000, guid: d0353a89b1f911e48b9e16bdc9f2e058, type: 3}
  m_Name: 
  m_EditorClassIdentifier: 
  version: 7
