%YAML 1.1
%TAG !u! tag:unity3d.com,2011:
--- !u!21 &2100000
Material:
  serializedVersion: 8
  m_ObjectHideFlags: 0
  m_CorrespondingSourceObject: {fileID: 0}
  m_PrefabInstance: {fileID: 0}
  m_PrefabAsset: {fileID: 0}
  m_Name: Planks_C_Yellow
  m_Shader: {fileID: 4800000, guid: 71a4e521d2e067e47b0887d29a219bec, type: 3}
  m_Parent: {fileID: 0}
  m_ModifiedSerializedProperties: 0
  m_ValidKeywords:
  - _MAT2_COLORTEXTURE_ON
  - _USECOLOR_ON
  m_InvalidKeywords:
  - _EMISSION
  - _NORMALMAP
  - _SMOOTHNESS_TEXTURE_ALBEDO_CHANNEL_A
  m_LightmapFlags: 5
  m_EnableInstancingVariants: 0
  m_DoubleSidedGI: 0
  m_CustomRenderQueue: -1
  stringTagMap: {}
  disabledShaderPasses: []
  m_LockedProperties: 
  m_SavedProperties:
    serializedVersion: 3
    m_TexEnvs:
    - _AO:
        m_Texture: {fileID: 2800000, guid: 44b950def6060664cab938e7e3ca7961, type: 3}
        m_Scale: {x: 1, y: 1}
        m_Offset: {x: 0, y: 0}
    - _BakedNormal:
        m_Texture: {fileID: 2800000, guid: 9d43bd232e090b64f8aec41af6a64ae1, type: 3}
        m_Scale: {x: 1, y: 1}
        m_Offset: {x: 0, y: 0}
    - _BumpMap:
        m_Texture: {fileID: 2800000, guid: 9d43bd232e090b64f8aec41af6a64ae1, type: 3}
        m_Scale: {x: 1, y: 1}
        m_Offset: {x: 0, y: 0}
    - _DetailAlbedoMap:
        m_Texture: {fileID: 0}
        m_Scale: {x: 1, y: 1}
        m_Offset: {x: 0, y: 0}
    - _DetailMask:
        m_Texture: {fileID: 0}
        m_Scale: {x: 1, y: 1}
        m_Offset: {x: 0, y: 0}
    - _DetailNormalMap:
        m_Texture: {fileID: 0}
        m_Scale: {x: 1, y: 1}
        m_Offset: {x: 0, y: 0}
    - _EmissionMap:
        m_Texture: {fileID: 0}
        m_Scale: {x: 2, y: 1.5}
        m_Offset: {x: 0, y: 0}
    - _MainTex:
        m_Texture: {fileID: 2800000, guid: f7656f436730b6e4b805ca69c3d4b355, type: 3}
        m_Scale: {x: 2, y: 1.5}
        m_Offset: {x: 0, y: 0}
    - _Mat1_BaseTexture:
        m_Texture: {fileID: 2800000, guid: f7656f436730b6e4b805ca69c3d4b355, type: 3}
        m_Scale: {x: 1, y: 1}
        m_Offset: {x: 0, y: 0}
    - _Mat1_Base_Normal:
        m_Texture: {fileID: 2800000, guid: 9d43bd232e090b64f8aec41af6a64ae1, type: 3}
        m_Scale: {x: 1, y: 1}
        m_Offset: {x: 0, y: 0}
    - _Mat2_BaseTexture:
        m_Texture: {fileID: 2800000, guid: f7656f436730b6e4b805ca69c3d4b355, type: 3}
        m_Scale: {x: 1, y: 1}
        m_Offset: {x: 0, y: 0}
    - _Mat2_Base_Normal:
        m_Texture: {fileID: 2800000, guid: 9d43bd232e090b64f8aec41af6a64ae1, type: 3}
        m_Scale: {x: 1, y: 1}
        m_Offset: {x: 0, y: 0}
    - _MetallicGlossMap:
        m_Texture: {fileID: 0}
        m_Scale: {x: 1, y: 1}
        m_Offset: {x: 0, y: 0}
    - _OcclusionMap:
        m_Texture: {fileID: 0}
        m_Scale: {x: 1, y: 1}
        m_Offset: {x: 0, y: 0}
    - _ParallaxMap:
        m_Texture: {fileID: 0}
        m_Scale: {x: 1, y: 1}
        m_Offset: {x: 0, y: 0}
    - _T_VertexBlend_Mask:
        m_Texture: {fileID: 2800000, guid: da890b246c748a24996be3177e395024, type: 3}
        m_Scale: {x: 1, y: 1}
        m_Offset: {x: 0, y: 0}
    - _texcoord:
        m_Texture: {fileID: 0}
        m_Scale: {x: 1, y: 1}
        m_Offset: {x: 0, y: 0}
    - unity_Lightmaps:
        m_Texture: {fileID: 0}
        m_Scale: {x: 1, y: 1}
        m_Offset: {x: 0, y: 0}
    - unity_LightmapsInd:
        m_Texture: {fileID: 0}
        m_Scale: {x: 1, y: 1}
        m_Offset: {x: 0, y: 0}
    - unity_ShadowMasks:
        m_Texture: {fileID: 0}
        m_Scale: {x: 1, y: 1}
        m_Offset: {x: 0, y: 0}
    m_Ints: []
    m_Floats:
    - _AlphaCutoff: 0.5
    - _BumpScale: 1
    - _Cutoff: 0.5
    - _DetailNormalMapScale: 1
    - _DstBlend: 0
    - _EnvironmentReflections: 1
    - _Global_G: 1.1
    - _GlossMapScale: 0.495
    - _Glossiness: 0.5
    - _GlossyReflections: 1
    - _Mat1_BakedNormal: 0
    - _Mat1_BakedUV1: 1
    - _Mat1_BaseColor: 1
    - _Mat1_ColorTexture: 0
    - _Mat1_Metallic: 0
    - _Mat1_Roughness: 0.5
    - _Mat1_RoughnessTexture: 0
    - _Mat1_UV: 2
    - _Mat2_BaseColor: 0.12
    - _Mat2_ColorTexture: 1
    - _Mat2_Metallic: 0
    - _Mat2_Roughness: 0
    - _Mat2_RoughnessTexture: 0
    - _Mat2_UV: 2
    - _Metallic: 0
    - _Mode: 0
    - _OcclusionStrength: 1
    - _Parallax: 0.02
    - _QueueControl: 0
    - _QueueOffset: 0
    - _ReceiveShadows: 1
    - _SmoothnessTextureChannel: 1
    - _SpecularHighlights: 1
    - _SrcBlend: 1
    - _UVSec: 0
    - _UseColor: 1
    - _UseColor_2: 0
    - _Use_AO: 0
    - _VColor_Details: 1.1
    - _VColor_G_Scale: 2
    - _VColor_Power: 1.1
    - _Worn_Level: 1.1
    - _ZWrite: 1
    - __dirty: 0
    m_Colors:
    - _Color: {r: 1, g: 0.9286004, b: 0.83823526, a: 1}
    - _EmissionColor: {r: 0, g: 0, b: 0, a: 1}
    - _Mat1_Color: {r: 1, g: 0.92941177, b: 0.8392157, a: 0}
    - _Mat2_Color: {r: 1, g: 1, b: 1, a: 0}
    - _Offset: {r: 0, g: 0, b: 0, a: 0}
    - _Tiling: {r: 1, g: 1, b: 0, a: 0}
  m_BuildTextureStacks: []
