%YAML 1.1
%TAG !u! tag:unity3d.com,2011:
--- !u!21 &2100000
Material:
  serializedVersion: 8
  m_ObjectHideFlags: 0
  m_CorrespondingSourceObject: {fileID: 0}
  m_PrefabInstance: {fileID: 0}
  m_PrefabAsset: {fileID: 0}
  m_Name: Wood_A_Dark
  m_Shader: {fileID: 4800000, guid: 71a4e521d2e067e47b0887d29a219bec, type: 3}
  m_Parent: {fileID: 0}
  m_ModifiedSerializedProperties: 0
  m_ValidKeywords:
  - _USECOLOR_2_ON
  - _USECOLOR_ON
  m_InvalidKeywords:
  - _EMISSION
  - _NORMALMAP
  - _SMOOTHNESS_TEXTURE_ALBEDO_CHANNEL_A
  m_LightmapFlags: 5
  m_EnableInstancingVariants: 0
  m_DoubleSidedGI: 0
  m_CustomRenderQueue: -1
  stringTagMap: {}
  disabledShaderPasses: []
  m_LockedProperties: 
  m_SavedProperties:
    serializedVersion: 3
    m_TexEnvs:
    - _AO:
        m_Texture: {fileID: 2800000, guid: 44b950def6060664cab938e7e3ca7961, type: 3}
        m_Scale: {x: 1, y: 1}
        m_Offset: {x: 0, y: 0}
    - _BakedNormal:
        m_Texture: {fileID: 2800000, guid: 4d8a8c41915686641a86d036080420a8, type: 3}
        m_Scale: {x: 1, y: 1}
        m_Offset: {x: 0, y: 0}
    - _BumpMap:
        m_Texture: {fileID: 2800000, guid: 4d8a8c41915686641a86d036080420a8, type: 3}
        m_Scale: {x: 1, y: 1}
        m_Offset: {x: 0, y: 0}
    - _DetailAlbedoMap:
        m_Texture: {fileID: 0}
        m_Scale: {x: 1, y: 1}
        m_Offset: {x: 0, y: 0}
    - _DetailMask:
        m_Texture: {fileID: 0}
        m_Scale: {x: 1, y: 1}
        m_Offset: {x: 0, y: 0}
    - _DetailNormalMap:
        m_Texture: {fileID: 0}
        m_Scale: {x: 1, y: 1}
        m_Offset: {x: 0, y: 0}
    - _EmissionMap:
        m_Texture: {fileID: 0}
        m_Scale: {x: 1, y: 1}
        m_Offset: {x: 0, y: 0}
    - _MainTex:
        m_Texture: {fileID: 2800000, guid: 4e035da3ec2286b40b641caf1669bf84, type: 3}
        m_Scale: {x: 1, y: 1}
        m_Offset: {x: 0, y: 0}
    - _Mat1_BaseTexture:
        m_Texture: {fileID: 2800000, guid: 4e035da3ec2286b40b641caf1669bf84, type: 3}
        m_Scale: {x: 1, y: 1}
        m_Offset: {x: 0, y: 0}
    - _Mat1_Base_Normal:
        m_Texture: {fileID: 2800000, guid: 4d8a8c41915686641a86d036080420a8, type: 3}
        m_Scale: {x: 1, y: 1}
        m_Offset: {x: 0, y: 0}
    - _Mat1_RoughnessT:
        m_Texture: {fileID: 0}
        m_Scale: {x: 1, y: 1}
        m_Offset: {x: 0, y: 0}
    - _Mat2_BaseTexture:
        m_Texture: {fileID: 2800000, guid: 4e035da3ec2286b40b641caf1669bf84, type: 3}
        m_Scale: {x: 1, y: 1}
        m_Offset: {x: 0, y: 0}
    - _Mat2_Base_Normal:
        m_Texture: {fileID: 2800000, guid: 4d8a8c41915686641a86d036080420a8, type: 3}
        m_Scale: {x: 1, y: 1}
        m_Offset: {x: 0, y: 0}
    - _Mat2_RoughnessT:
        m_Texture: {fileID: 0}
        m_Scale: {x: 1, y: 1}
        m_Offset: {x: 0, y: 0}
    - _MetallicGlossMap:
        m_Texture: {fileID: 0}
        m_Scale: {x: 1, y: 1}
        m_Offset: {x: 0, y: 0}
    - _OcclusionMap:
        m_Texture: {fileID: 0}
        m_Scale: {x: 1, y: 1}
        m_Offset: {x: 0, y: 0}
    - _ParallaxMap:
        m_Texture: {fileID: 0}
        m_Scale: {x: 1, y: 1}
        m_Offset: {x: 0, y: 0}
    - _T_Mask_Variation_A1:
        m_Texture: {fileID: 0}
        m_Scale: {x: 1, y: 1}
        m_Offset: {x: 0, y: 0}
    - _T_VertexBlend_Mask:
        m_Texture: {fileID: 2800000, guid: 1035ac5893f531b40b3553688a0545c8, type: 3}
        m_Scale: {x: 1, y: 1}
        m_Offset: {x: 0, y: 0}
    - _texcoord:
        m_Texture: {fileID: 0}
        m_Scale: {x: 1, y: 1}
        m_Offset: {x: 0, y: 0}
    - unity_Lightmaps:
        m_Texture: {fileID: 0}
        m_Scale: {x: 1, y: 1}
        m_Offset: {x: 0, y: 0}
    - unity_LightmapsInd:
        m_Texture: {fileID: 0}
        m_Scale: {x: 1, y: 1}
        m_Offset: {x: 0, y: 0}
    - unity_ShadowMasks:
        m_Texture: {fileID: 0}
        m_Scale: {x: 1, y: 1}
        m_Offset: {x: 0, y: 0}
    m_Ints: []
    m_Floats:
    - _AlphaCutoff: 0.5
    - _BumpScale: 1
    - _Cutoff: 0.5
    - _DetailNormalMapScale: 1
    - _DstBlend: 0
    - _EnvironmentReflections: 1
    - _Global_G: 1.1
    - _GlossMapScale: 0.519
    - _Glossiness: 0.5
    - _GlossyReflections: 1
    - _Mat1_BakedMaskUV: 0
    - _Mat1_BakedNormal: 0
    - _Mat1_BakedUV1: 1
    - _Mat1_BaseColor: 1
    - _Mat1_ColorTexture: 0
    - _Mat1_Metallic: 0
    - _Mat1_Roughness: 0.5
    - _Mat1_RoughnessTexture: 0
    - _Mat1_TextureDetails: 0.327
    - _Mat1_UV: 1.49
    - _Mat2_BaseColor: 0.51
    - _Mat2_ColorTexture: 0
    - _Mat2_Metallic: 0
    - _Mat2_Roughness: 0
    - _Mat2_RoughnessTexture: 0
    - _Mat2_UV: 2
    - _Metallic: 0
    - _Mode: 0
    - _Normal_Power: 0.00015
    - _OcclusionStrength: 1
    - _Parallax: 0.02
    - _QueueControl: 0
    - _QueueOffset: 0
    - _ReceiveShadows: 1
    - _SmoothnessTextureChannel: 1
    - _SpecularHighlights: 1
    - _SrcBlend: 1
    - _UVSec: 0
    - _UseColor: 1
    - _UseColor_2: 1
    - _Use_AO: 0
    - _VColor_Details: 1.1
    - _VColor_G_Scale: 1.37
    - _VColor_Power: 1.1
    - _Worn_Level: 1.1
    - _ZWrite: 1
    - __dirty: 0
    m_Colors:
    - _Color: {r: 0.63235295, g: 0.63235295, b: 0.63235295, a: 1}
    - _EmissionColor: {r: 0, g: 0, b: 0, a: 1}
    - _Mat1_Color: {r: 0.6313726, g: 0.6313726, b: 0.6313726, a: 0}
    - _Mat2_Color: {r: 0.9433962, g: 0.75576025, b: 0.56514776, a: 1}
    - _Offset: {r: 0, g: 0, b: 0, a: 0}
    - _Tiling: {r: 1, g: 1, b: 0, a: 0}
  m_BuildTextureStacks: []
