%YAML 1.1
%TAG !u! tag:unity3d.com,2011:
--- !u!114 &11400000
MonoBehaviour:
  m_ObjectHideFlags: 0
  m_CorrespondingSourceObject: {fileID: 0}
  m_PrefabInstance: {fileID: 0}
  m_PrefabAsset: {fileID: 0}
  m_GameObject: {fileID: 0}
  m_Enabled: 1
  m_EditorHideFlags: 0
  m_Script: {fileID: 11500000, guid: b94ce67e1680d0e4db34aeb1f71e6c9a, type: 3}
  m_Name: Misc_M
  m_EditorClassIdentifier: 
  Items:
  - Mesh: {fileID: 0}
    Name: None
    DisplayName: </>
    AddCopyPoseScript: 0
    Mask: {fileID: 2800000, guid: 1270350247c551c459dd9a3499de08a6, type: 3}
    FootOffset:
      HeightOffset: -1
      FootRotation: 0
      BallRotation: 0
    Materials: []
    Icon: {fileID: 0}
  - Mesh: {fileID: 8966852860704626052, guid: 886cd7ceea5e88a42b49db1d1bcc6500, type: 3}
    Name: Glasses_01
    DisplayName: Glasses
    AddCopyPoseScript: 0
    Mask: {fileID: 2800000, guid: 1270350247c551c459dd9a3499de08a6, type: 3}
    FootOffset:
      HeightOffset: -1
      FootRotation: 0
      BallRotation: 0
    Materials:
    - Label: Black
      MaterialDefinitions:
      - MainTint: {r: 0.14901961, g: 0.14901961, b: 0.14901961, a: 0}
        TintR: {r: 0, g: 0, b: 0, a: 0}
        TintG: {r: 0, g: 0, b: 0, a: 0}
        TintB: {r: 0, g: 0, b: 0, a: 0}
        Print: {fileID: 0}
    - Label: Tortoise
      MaterialDefinitions:
      - MainTint: {r: 1, g: 1, b: 1, a: 0}
        TintR: {r: 0, g: 0, b: 0, a: 0}
        TintG: {r: 0, g: 0, b: 0, a: 0}
        TintB: {r: 0, g: 0, b: 0, a: 0}
        Print: {fileID: 2800000, guid: c891d844cff81194badeceab9840d7cb, type: 3}
    Icon: {fileID: 0}
  - Mesh: {fileID: 2403223988897491330, guid: 86b2767b3154edc4ba3fb3915ac21f91, type: 3}
    Name: Glasses_Aviator
    DisplayName: Aviator Glasses
    AddCopyPoseScript: 0
    Mask: {fileID: 2800000, guid: 1270350247c551c459dd9a3499de08a6, type: 3}
    FootOffset:
      HeightOffset: -1
      FootRotation: 0
      BallRotation: 0
    Materials: []
    Icon: {fileID: 0}
  - Mesh: {fileID: 272041995659141229, guid: 0613068d83c1f234fac37da539f0cbd7, type: 3}
    Name: Wristwatch_01
    DisplayName: Wristwatch
    AddCopyPoseScript: 0
    Mask: {fileID: 2800000, guid: 1270350247c551c459dd9a3499de08a6, type: 3}
    FootOffset:
      HeightOffset: -1
      FootRotation: 0
      BallRotation: 0
    Materials: []
    Icon: {fileID: 0}
  MaskProperty: 
  Label: Miscellaneous
