%YAML 1.1
%TAG !u! tag:unity3d.com,2011:
--- !u!1001 &4781605883366574720
PrefabInstance:
  m_ObjectHideFlags: 0
  serializedVersion: 2
  m_Modification:
    serializedVersion: 3
    m_TransformParent: {fileID: 0}
    m_Modifications:
    - target: {fileID: -8971151663897657892, guid: cf215cbee56f5b24792369b00279eea8,
        type: 3}
      propertyPath: m_Materials.Array.data[0]
      value: 
      objectReference: {fileID: 2100000, guid: 6b034559c83e6d04c8760df8e51cc6f7, type: 2}
    - target: {fileID: -8679921383154817045, guid: cf215cbee56f5b24792369b00279eea8,
        type: 3}
      propertyPath: m_LocalPosition.x
      value: 4.305374
      objectReference: {fileID: 0}
    - target: {fileID: -8679921383154817045, guid: cf215cbee56f5b24792369b00279eea8,
        type: 3}
      propertyPath: m_LocalPosition.y
      value: 0
      objectReference: {fileID: 0}
    - target: {fileID: -8679921383154817045, guid: cf215cbee56f5b24792369b00279eea8,
        type: 3}
      propertyPath: m_LocalPosition.z
      value: -5.6071825
      objectReference: {fileID: 0}
    - target: {fileID: -8679921383154817045, guid: cf215cbee56f5b24792369b00279eea8,
        type: 3}
      propertyPath: m_LocalRotation.w
      value: 1
      objectReference: {fileID: 0}
    - target: {fileID: -8679921383154817045, guid: cf215cbee56f5b24792369b00279eea8,
        type: 3}
      propertyPath: m_LocalRotation.x
      value: 0
      objectReference: {fileID: 0}
    - target: {fileID: -8679921383154817045, guid: cf215cbee56f5b24792369b00279eea8,
        type: 3}
      propertyPath: m_LocalRotation.y
      value: 0
      objectReference: {fileID: 0}
    - target: {fileID: -8679921383154817045, guid: cf215cbee56f5b24792369b00279eea8,
        type: 3}
      propertyPath: m_LocalRotation.z
      value: 0
      objectReference: {fileID: 0}
    - target: {fileID: -8679921383154817045, guid: cf215cbee56f5b24792369b00279eea8,
        type: 3}
      propertyPath: m_LocalEulerAnglesHint.x
      value: 0
      objectReference: {fileID: 0}
    - target: {fileID: -8679921383154817045, guid: cf215cbee56f5b24792369b00279eea8,
        type: 3}
      propertyPath: m_LocalEulerAnglesHint.y
      value: 0
      objectReference: {fileID: 0}
    - target: {fileID: -8679921383154817045, guid: cf215cbee56f5b24792369b00279eea8,
        type: 3}
      propertyPath: m_LocalEulerAnglesHint.z
      value: 0
      objectReference: {fileID: 0}
    - target: {fileID: -3975602487360493908, guid: cf215cbee56f5b24792369b00279eea8,
        type: 3}
      propertyPath: m_Materials.Array.data[0]
      value: 
      objectReference: {fileID: 2100000, guid: 6b034559c83e6d04c8760df8e51cc6f7, type: 2}
    - target: {fileID: -3849078563965296809, guid: cf215cbee56f5b24792369b00279eea8,
        type: 3}
      propertyPath: m_Materials.Array.data[0]
      value: 
      objectReference: {fileID: 2100000, guid: 6b034559c83e6d04c8760df8e51cc6f7, type: 2}
    - target: {fileID: -1320725975238312482, guid: cf215cbee56f5b24792369b00279eea8,
        type: 3}
      propertyPath: m_Materials.Array.data[0]
      value: 
      objectReference: {fileID: 2100000, guid: 6b034559c83e6d04c8760df8e51cc6f7, type: 2}
    - target: {fileID: -1098778011143140566, guid: cf215cbee56f5b24792369b00279eea8,
        type: 3}
      propertyPath: m_Materials.Array.data[0]
      value: 
      objectReference: {fileID: 2100000, guid: 6b034559c83e6d04c8760df8e51cc6f7, type: 2}
    - target: {fileID: 919132149155446097, guid: cf215cbee56f5b24792369b00279eea8,
        type: 3}
      propertyPath: m_Name
      value: FBX_TrashBags (1)
      objectReference: {fileID: 0}
    m_RemovedComponents: []
    m_RemovedGameObjects: []
    m_AddedGameObjects: []
    m_AddedComponents: []
  m_SourcePrefab: {fileID: 100100000, guid: cf215cbee56f5b24792369b00279eea8, type: 3}
