%YAML 1.1
%TAG !u! tag:unity3d.com,2011:
--- !u!1001 &6541175548691996751
PrefabInstance:
  m_ObjectHideFlags: 0
  serializedVersion: 2
  m_Modification:
    m_TransformParent: {fileID: 0}
    m_Modifications:
    - target: {fileID: -8679921383154817045, guid: cdbb304aec57d2d4584560021f991065,
        type: 3}
      propertyPath: m_RootOrder
      value: 0
      objectReference: {fileID: 0}
    - target: {fileID: -8679921383154817045, guid: cdbb304aec57d2d4584560021f991065,
        type: 3}
      propertyPath: m_LocalPosition.x
      value: 0
      objectReference: {fileID: 0}
    - target: {fileID: -8679921383154817045, guid: cdbb304aec57d2d4584560021f991065,
        type: 3}
      propertyPath: m_LocalPosition.y
      value: 0
      objectReference: {fileID: 0}
    - target: {fileID: -8679921383154817045, guid: cdbb304aec57d2d4584560021f991065,
        type: 3}
      propertyPath: m_LocalPosition.z
      value: 0
      objectReference: {fileID: 0}
    - target: {fileID: -8679921383154817045, guid: cdbb304aec57d2d4584560021f991065,
        type: 3}
      propertyPath: m_LocalRotation.w
      value: 1
      objectReference: {fileID: 0}
    - target: {fileID: -8679921383154817045, guid: cdbb304aec57d2d4584560021f991065,
        type: 3}
      propertyPath: m_LocalRotation.x
      value: 0
      objectReference: {fileID: 0}
    - target: {fileID: -8679921383154817045, guid: cdbb304aec57d2d4584560021f991065,
        type: 3}
      propertyPath: m_LocalRotation.y
      value: 0
      objectReference: {fileID: 0}
    - target: {fileID: -8679921383154817045, guid: cdbb304aec57d2d4584560021f991065,
        type: 3}
      propertyPath: m_LocalRotation.z
      value: 0
      objectReference: {fileID: 0}
    - target: {fileID: -8679921383154817045, guid: cdbb304aec57d2d4584560021f991065,
        type: 3}
      propertyPath: m_LocalEulerAnglesHint.x
      value: 0
      objectReference: {fileID: 0}
    - target: {fileID: -8679921383154817045, guid: cdbb304aec57d2d4584560021f991065,
        type: 3}
      propertyPath: m_LocalEulerAnglesHint.y
      value: 0
      objectReference: {fileID: 0}
    - target: {fileID: -8679921383154817045, guid: cdbb304aec57d2d4584560021f991065,
        type: 3}
      propertyPath: m_LocalEulerAnglesHint.z
      value: 0
      objectReference: {fileID: 0}
    - target: {fileID: -7178332885980759438, guid: cdbb304aec57d2d4584560021f991065,
        type: 3}
      propertyPath: m_CastShadows
      value: 0
      objectReference: {fileID: 0}
    - target: {fileID: -7178332885980759438, guid: cdbb304aec57d2d4584560021f991065,
        type: 3}
      propertyPath: m_Materials.Array.data[0]
      value: 
      objectReference: {fileID: 2100000, guid: 611c67d6c59b84d45b58a856f2969ddb, type: 2}
    - target: {fileID: 919132149155446097, guid: cdbb304aec57d2d4584560021f991065,
        type: 3}
      propertyPath: m_Name
      value: Hair_Beard_01 Variant
      objectReference: {fileID: 0}
    - target: {fileID: 2914506980499419360, guid: cdbb304aec57d2d4584560021f991065,
        type: 3}
      propertyPath: m_CastShadows
      value: 0
      objectReference: {fileID: 0}
    - target: {fileID: 2914506980499419360, guid: cdbb304aec57d2d4584560021f991065,
        type: 3}
      propertyPath: m_Materials.Array.data[0]
      value: 
      objectReference: {fileID: 2100000, guid: 611c67d6c59b84d45b58a856f2969ddb, type: 2}
    - target: {fileID: 8395759428444905907, guid: cdbb304aec57d2d4584560021f991065,
        type: 3}
      propertyPath: m_CastShadows
      value: 0
      objectReference: {fileID: 0}
    - target: {fileID: 8395759428444905907, guid: cdbb304aec57d2d4584560021f991065,
        type: 3}
      propertyPath: m_Materials.Array.data[0]
      value: 
      objectReference: {fileID: 2100000, guid: 611c67d6c59b84d45b58a856f2969ddb, type: 2}
    - target: {fileID: 8395759428444905907, guid: cdbb304aec57d2d4584560021f991065,
        type: 3}
      propertyPath: m_BlendShapeWeights.Array.size
      value: 147
      objectReference: {fileID: 0}
    - target: {fileID: 8395759428444905907, guid: cdbb304aec57d2d4584560021f991065,
        type: 3}
      propertyPath: m_BlendShapeWeights.Array.data[0]
      value: 0
      objectReference: {fileID: 0}
    m_RemovedComponents: []
  m_SourcePrefab: {fileID: 100100000, guid: cdbb304aec57d2d4584560021f991065, type: 3}
