%YAML 1.1
%TAG !u! tag:unity3d.com,2011:
--- !u!1001 &6947698621818983751
PrefabInstance:
  m_ObjectHideFlags: 0
  serializedVersion: 2
  m_Modification:
    serializedVersion: 3
    m_TransformParent: {fileID: 0}
    m_Modifications:
    - target: {fileID: -8679921383154817045, guid: c420ae51b2946ab438d180240510ed1b,
        type: 3}
      propertyPath: m_LocalPosition.x
      value: -239.294
      objectReference: {fileID: 0}
    - target: {fileID: -8679921383154817045, guid: c420ae51b2946ab438d180240510ed1b,
        type: 3}
      propertyPath: m_LocalPosition.y
      value: 2.5735314
      objectReference: {fileID: 0}
    - target: {fileID: -8679921383154817045, guid: c420ae51b2946ab438d180240510ed1b,
        type: 3}
      propertyPath: m_LocalPosition.z
      value: -14.868
      objectReference: {fileID: 0}
    - target: {fileID: -8679921383154817045, guid: c420ae51b2946ab438d180240510ed1b,
        type: 3}
      propertyPath: m_LocalRotation.w
      value: 1
      objectReference: {fileID: 0}
    - target: {fileID: -8679921383154817045, guid: c420ae51b2946ab438d180240510ed1b,
        type: 3}
      propertyPath: m_LocalRotation.x
      value: 0.000000021855694
      objectReference: {fileID: 0}
    - target: {fileID: -8679921383154817045, guid: c420ae51b2946ab438d180240510ed1b,
        type: 3}
      propertyPath: m_LocalRotation.y
      value: -0
      objectReference: {fileID: 0}
    - target: {fileID: -8679921383154817045, guid: c420ae51b2946ab438d180240510ed1b,
        type: 3}
      propertyPath: m_LocalRotation.z
      value: -0
      objectReference: {fileID: 0}
    - target: {fileID: -8679921383154817045, guid: c420ae51b2946ab438d180240510ed1b,
        type: 3}
      propertyPath: m_LocalEulerAnglesHint.x
      value: 0
      objectReference: {fileID: 0}
    - target: {fileID: -8679921383154817045, guid: c420ae51b2946ab438d180240510ed1b,
        type: 3}
      propertyPath: m_LocalEulerAnglesHint.y
      value: 0
      objectReference: {fileID: 0}
    - target: {fileID: -8679921383154817045, guid: c420ae51b2946ab438d180240510ed1b,
        type: 3}
      propertyPath: m_LocalEulerAnglesHint.z
      value: 0
      objectReference: {fileID: 0}
    - target: {fileID: -5934713117488315568, guid: c420ae51b2946ab438d180240510ed1b,
        type: 3}
      propertyPath: m_Materials.Array.data[0]
      value: 
      objectReference: {fileID: 2100000, guid: 0e7cd5cf966beae43a5f99b8cb53d48c, type: 2}
    - target: {fileID: 919132149155446097, guid: c420ae51b2946ab438d180240510ed1b,
        type: 3}
      propertyPath: m_Name
      value: Suszarka
      objectReference: {fileID: 0}
    - target: {fileID: 2955776829412210835, guid: c420ae51b2946ab438d180240510ed1b,
        type: 3}
      propertyPath: m_Materials.Array.data[0]
      value: 
      objectReference: {fileID: 2100000, guid: 0e7cd5cf966beae43a5f99b8cb53d48c, type: 2}
    - target: {fileID: 2987757733083616141, guid: c420ae51b2946ab438d180240510ed1b,
        type: 3}
      propertyPath: m_LocalPosition.y
      value: -3.117
      objectReference: {fileID: 0}
    - target: {fileID: 2987757733083616141, guid: c420ae51b2946ab438d180240510ed1b,
        type: 3}
      propertyPath: m_LocalPosition.z
      value: 0
      objectReference: {fileID: 0}
    m_RemovedComponents: []
    m_RemovedGameObjects: []
    m_AddedGameObjects: []
    m_AddedComponents: []
  m_SourcePrefab: {fileID: 100100000, guid: c420ae51b2946ab438d180240510ed1b, type: 3}
