%YAML 1.1
%TAG !u! tag:unity3d.com,2011:
--- !u!1001 &654621353489187198
PrefabInstance:
  m_ObjectHideFlags: 0
  serializedVersion: 2
  m_Modification:
    m_TransformParent: {fileID: 0}
    m_Modifications:
    - target: {fileID: -8679921383154817045, guid: e9069b7a3c002d342ba523737ca4fe9c,
        type: 3}
      propertyPath: m_RootOrder
      value: 0
      objectReference: {fileID: 0}
    - target: {fileID: -8679921383154817045, guid: e9069b7a3c002d342ba523737ca4fe9c,
        type: 3}
      propertyPath: m_LocalPosition.x
      value: 0
      objectReference: {fileID: 0}
    - target: {fileID: -8679921383154817045, guid: e9069b7a3c002d342ba523737ca4fe9c,
        type: 3}
      propertyPath: m_LocalPosition.y
      value: 0
      objectReference: {fileID: 0}
    - target: {fileID: -8679921383154817045, guid: e9069b7a3c002d342ba523737ca4fe9c,
        type: 3}
      propertyPath: m_LocalPosition.z
      value: 0
      objectReference: {fileID: 0}
    - target: {fileID: -8679921383154817045, guid: e9069b7a3c002d342ba523737ca4fe9c,
        type: 3}
      propertyPath: m_LocalRotation.w
      value: 1
      objectReference: {fileID: 0}
    - target: {fileID: -8679921383154817045, guid: e9069b7a3c002d342ba523737ca4fe9c,
        type: 3}
      propertyPath: m_LocalRotation.x
      value: 0
      objectReference: {fileID: 0}
    - target: {fileID: -8679921383154817045, guid: e9069b7a3c002d342ba523737ca4fe9c,
        type: 3}
      propertyPath: m_LocalRotation.y
      value: 0
      objectReference: {fileID: 0}
    - target: {fileID: -8679921383154817045, guid: e9069b7a3c002d342ba523737ca4fe9c,
        type: 3}
      propertyPath: m_LocalRotation.z
      value: 0
      objectReference: {fileID: 0}
    - target: {fileID: -8679921383154817045, guid: e9069b7a3c002d342ba523737ca4fe9c,
        type: 3}
      propertyPath: m_LocalEulerAnglesHint.x
      value: 0
      objectReference: {fileID: 0}
    - target: {fileID: -8679921383154817045, guid: e9069b7a3c002d342ba523737ca4fe9c,
        type: 3}
      propertyPath: m_LocalEulerAnglesHint.y
      value: 0
      objectReference: {fileID: 0}
    - target: {fileID: -8679921383154817045, guid: e9069b7a3c002d342ba523737ca4fe9c,
        type: 3}
      propertyPath: m_LocalEulerAnglesHint.z
      value: 0
      objectReference: {fileID: 0}
    - target: {fileID: -6837224164281205221, guid: e9069b7a3c002d342ba523737ca4fe9c,
        type: 3}
      propertyPath: m_Materials.Array.data[0]
      value: 
      objectReference: {fileID: 2100000, guid: d7ff428b8ed38f4458d97f0139311bbd, type: 2}
    - target: {fileID: -5027138428816102576, guid: e9069b7a3c002d342ba523737ca4fe9c,
        type: 3}
      propertyPath: m_Materials.Array.data[0]
      value: 
      objectReference: {fileID: 2100000, guid: d7ff428b8ed38f4458d97f0139311bbd, type: 2}
    - target: {fileID: -231898308491088610, guid: e9069b7a3c002d342ba523737ca4fe9c,
        type: 3}
      propertyPath: m_Materials.Array.data[0]
      value: 
      objectReference: {fileID: 2100000, guid: d7ff428b8ed38f4458d97f0139311bbd, type: 2}
    - target: {fileID: 919132149155446097, guid: e9069b7a3c002d342ba523737ca4fe9c,
        type: 3}
      propertyPath: m_Name
      value: Jeans_01_M Black
      objectReference: {fileID: 0}
    - target: {fileID: 2366949248041863193, guid: e9069b7a3c002d342ba523737ca4fe9c,
        type: 3}
      propertyPath: m_Materials.Array.data[0]
      value: 
      objectReference: {fileID: 2100000, guid: d7ff428b8ed38f4458d97f0139311bbd, type: 2}
    m_RemovedComponents: []
  m_SourcePrefab: {fileID: 100100000, guid: e9069b7a3c002d342ba523737ca4fe9c, type: 3}
